1.691014465695099034e+01
-3.565902123771082444e+01
5.451761807743606170e+01
1.167227155384654935e+00
4.702156176100871221e+01
-4.721265427558107319e+01
-2.054960990613635730e+01
4.105126938086221600e+01
3.932899953889463518e+01
7.765327623337586971e+00
-7.691033599673851029e+00
-6.076347596447219779e+00
5.113584804517948612e+00
5.489265082697484033e+00
3.907197409346482075e+00
